{
  "project_info": {
    "project_number": "550727462638",
    "firebase_url": "https://info-inside.firebaseio.com",
    "project_id": "info-inside",
    "storage_bucket": "info-inside.appspot.com"
  },
  "client": [
    {
      "client_info": {
        "mobilesdk_app_id": "1:550727462638:android:1e5cc80e87e7ab3e",
        "android_client_info": {
          "package_name": "com.osam.indosm.info_manager"
        }
      },
      "oauth_client": [
        {
          "client_id": "550727462638-fkejhfuihv7vnu8dh0v2pkmg2m96vqtn.apps.googleusercontent.com",
          "client_type": 1,
          "android_info": {
            "package_name": "com.osam.indosm.info_manager",
            "certificate_hash": "3a89229973c7f4bf1af4bd33bea47fdef65a599c"
          }
        },
        {
          "client_id": "550727462638-h5sgc5idjg37b70jrg12p3paq2s0ia47.apps.googleusercontent.com",
          "client_type": 3
        }
      ],
      "api_key": [
        {
          "current_key": "AIzaSyAWQypqSg5mLzD367xZF7N7OhTWhTrgT7g"
        }
      ],
      "services": {
        "analytics_service": {
          "status": 1
        },
        "appinvite_service": {
          "status": 2,
          "other_platform_oauth_client": [
            {
              "client_id": "550727462638-h5sgc5idjg37b70jrg12p3paq2s0ia47.apps.googleusercontent.com",
              "client_type": 3
            }
          ]
        },
        "ads_service": {
          "status": 2
        }
      }
    }
  ],
  "configuration_version": "1"
}